03_projecoes
…
# Imprimir tabela de tendência anual
print("Tendência Anual de Nascidos Vivos (2000-2030):")

[1] "Tendência Anual de Nascidos Vivos (2000-2030):"

print(tabela_tendencia_wide)

# A tibble: 31 × 3
     ano histórico projeção
   <dbl>     <dbl>    <dbl>
 1  2000      1052       NA
 2  2001      1034       NA
 3  2002       916       NA
 4  2003       921       NA
 5  2004       900       NA
 6  2005       938       NA
 7  2006       864       NA
 8  2007       848       NA
 9  2008       873       NA
10  2009       770       NA
# ℹ 21 more rows
